Final Group Project · Warren's Portfolio Website
…
Next, we look at the variable property_type and use the count() function to determine how many categories there are and their frequency. Specifically, we like to know:

What are the top 4 most common property types?

What proportion of the total listings do they make up?

property_type <- listings %>%
  group_by(property_type) %>% 
  summarise(n=n()) %>%
  arrange(desc(n)) %>%
  mutate(property_type, `Percent (%)`=round((n / nrow(listings)) * 100, 1))

property_type

## # A tibble: 36 x 3
##    property_type          n `Percent (%)`
##    <chr>              <int>         <dbl>
##  1 Apartment          27450          76.8
##  2 House               3563          10  
##  3 Condominium         2078           5.8
##  4 Loft                 709           2  
##  5 Serviced apartment   655           1.8
##  6 Guest suite          227           0.6
##  7 Bed and breakfast    159           0.4
##  8 Guesthouse           138           0.4
##  9 Villa                115           0.3
## 10 Hotel                114           0.3
## # ... with 26 more rows
…
Airbnb is most commonly used for travel purposes, i.e., as an alternative to traditional hotels. We only want to include listings in our regression analysis that are intended for travel purposes:

min_stay <- listings %>% 
  count(minimum_nights) %>% 
  arrange(desc(n))
min_stay <- mutate(min_stay, `Percent (%)`=round((n / nrow(listings)) * 100, 3))
min_stay

## # A tibble: 77 x 3
##    minimum_nights     n `Percent (%)`
##             <dbl> <int>         <dbl>
##  1              1  9930         27.8 
##  2              2  8460         23.7 
##  3              3  6795         19.0 
##  4              5  2955          8.27
##  5              4  2446          6.85
##  6              7  1723          4.82
##  7             10   873          2.44
##  8             15   655          1.83
##  9              6   438          1.23
## 10             30   413          1.16
## # ... with 67 more rows
…
Now we will analyze how neighbourhood related to price.

neighbourhood

Looking at the map, properties of outskirts of Rio seems reduce much.

neighbour_list <- listings %>% 
  filter(!is.na(neighbourhood)) %>%
  group_by(neighbourhood) %>% 
  summarise(n=n(), prop_mean_price=mean(price_4_nights))  %>% 
  arrange(desc(n)) %>%
  mutate(`Percent (%)`=round((n / nrow(listings)) * 100, 1))
neighbour_list

## # A tibble: 78 x 4
##    neighbourhood                n prop_mean_price `Percent (%)`
##    <chr>                    <int>           <dbl>         <dbl>
##  1 Copacabana                3540           1475.          29.5
##  2 Barra da Tijuca           1812           1626.          15.1
##  3 Ipanema                   1103           1910.           9.2
##  4 Botafogo                   661           1291.           5.5
##  5 Leblon                     567           2026.           4.7
##  6 Santa Teresa               483           1076.           4  
##  7 Recreio dos Bandeirantes   480           1499.           4  
##  8 Flamengo                   357           1245.           3  
##  9 Centro                     239           1008.           2  
## 10 Leme                       238           1433.           2  
## # ... with 68 more rows
…
