Session 4: Homework 2 · Warren's Portfolio Website
…
unique(gss_degree_cleaned$degree)

## [1] Bachelor       High school    Graduate       Junior college Lt high school
## 5 Levels: Lt high school < High school < Junior college < ... < Graduate

Create a new variable, bachelor_graduate that is Yes if the respondent has either a Bachelor or Graduate degree. As before, if the recorded value for either was NA, the value in your new variable should also be NA.

gss <- gss %>% mutate(bachelor_graduate = case_when(degree=="Bachelor"|degree=="Graduate"~"Yes", degree=="NA"~"NA",
                                                    TRUE~"No"))

gss

## # A tibble: 2,867 x 9
##    emailmin emailhr snapchat instagrm twitter sex   degree snap_insta
##    <chr>    <chr>   <chr>    <chr>    <chr>   <chr> <chr>  <chr>     
##  1 0        12      NA       NA       NA      Male  Bache~ NA        
##  2 30       0       No       No       No      Male  High ~ No        
##  3 NA       NA      No       No       No      Male  Bache~ No        
##  4 10       0       NA       NA       NA      Fema~ High ~ NA        
##  5 NA       NA      Yes      Yes      No      Fema~ Gradu~ Yes       
##  6 0        2       No       Yes      No      Fema~ Junio~ Yes       
##  7 0        40      NA       NA       NA      Male  High ~ NA        
##  8 NA       NA      Yes      Yes      No      Fema~ High ~ Yes       
##  9 0        0       NA       NA       NA      Male  High ~ NA        
## 10 NA       NA      No       No       No      Male  Junio~ No        
## # ... with 2,857 more rows, and 1 more variable: bachelor_graduate <chr>
…
Email usage

Can we estimate the population parameter on time spent on email weekly?

Create a new variable called email that combines emailhr and emailmin to reports the number of minutes the respondents spend on email weekly.

gss$emailhr <- as.numeric(gss$emailhr)
gss$emailmin <- as.numeric(gss$emailmin)

gss_email <- gss %>% filter(!is.na(emailhr) & !is.na(emailmin)) %>% 
  mutate(email = emailhr*60+emailmin)

gss_email

## # A tibble: 1,649 x 10
##    emailmin emailhr snapchat instagrm twitter sex   degree snap_insta
##       <dbl>   <dbl> <chr>    <chr>    <chr>   <chr> <chr>  <chr>     
##  1        0      12 NA       NA       NA      Male  Bache~ NA        
##  2       30       0 No       No       No      Male  High ~ No        
##  3       10       0 NA       NA       NA      Fema~ High ~ NA        
##  4        0       2 No       Yes      No      Fema~ Junio~ Yes       
##  5        0      40 NA       NA       NA      Male  High ~ NA        
##  6        0       0 NA       NA       NA      Male  High ~ NA        
##  7        0       2 No       No       No      Fema~ High ~ No        
##  8        0      10 No       No       No      Male  High ~ No        
##  9       30       0 No       No       No      Male  Lt hi~ No        
## 10        0       1 NA       NA       NA      Fema~ Lt hi~ NA        
## # ... with 1,639 more rows, and 2 more variables: bachelor_graduate <chr>,
## #   email <dbl>
…
# Use `lubridate` to fix dates, as they are given as characters.

# Use `lubridate` to fix dates, as they are given as characters.

library(lubridate)
approval_polllist_converted <- approval_polllist %>% 
  mutate(modeldate = mdy(modeldate),
         startdate = mdy(startdate), 
         enddate = mdy(enddate))

approval_polllist_converted

## # A tibble: 15,619 x 22
##    president subgroup modeldate  startdate  enddate    pollster grade samplesize
##    <chr>     <chr>    <date>     <date>     <date>     <chr>    <chr>      <dbl>
##  1 Donald T~ All pol~ 2020-09-27 2017-01-20 2017-01-22 Gallup   B           1500
##  2 Donald T~ All pol~ 2020-09-27 2017-01-20 2017-01-22 Morning~ B/C         1992
##  3 Donald T~ All pol~ 2020-09-27 2017-01-20 2017-01-24 Ipsos    B-          1632
##  4 Donald T~ All pol~ 2020-09-27 2017-01-21 2017-01-23 Gallup   B           1500
##  5 Donald T~ All pol~ 2020-09-27 2017-01-21 2017-01-25 Ipsos    B-          1651
##  6 Donald T~ All pol~ 2020-09-27 2017-01-22 2017-01-24 Rasmuss~ C+          1500
##  7 Donald T~ All pol~ 2020-09-27 2017-01-20 2017-01-25 Quinnip~ B+          1190
##  8 Donald T~ All pol~ 2020-09-27 2017-01-22 2017-01-24 Gallup   B           1500
##  9 Donald T~ All pol~ 2020-09-27 2017-01-23 2017-01-25 Rasmuss~ C+          1500
## 10 Donald T~ All pol~ 2020-09-27 2017-01-23 2017-01-25 Gallup   B           1500
## # ... with 15,609 more rows, and 14 more variables: population <chr>,
## #   weight <dbl>, influence <dbl>, approve <dbl>, disapprove <dbl>,
## #   adjusted_approve <dbl>, adjusted_disapprove <dbl>, multiversions <chr>,
## #   tracking <lgl>, url <chr>, poll_id <dbl>, question_id <dbl>,
## #   createddate <chr>, timestamp <chr>
…
weekly_net_approval

## # A tibble: 192 x 10
## # Groups:   year [4]
##     year  week mean_weekly_nar sd_weekly_nar count_weekly_nar t_distribution
##    <dbl> <dbl>           <dbl>         <dbl>            <int>          <dbl>
##  1  2017     4           2.96           7.67               14           2.16
##  2  2017     5           1.85           3.67               20           2.09
##  3  2017     6          -2.06           5.82               25           2.06
##  4  2017     7          -2.46           6.35               25           2.06
##  5  2017     8          -3.32           5.96               23           2.07
##  6  2017     9          -0.704          3.81               23           2.07
##  7  2017    10          -3.13           4.49               25           2.06
##  8  2017    11          -4.67           4.43               25           2.06
##  9  2017    12          -5.6            6.71               24           2.07
## 10  2017    13          -9.89           3.94               25           2.06
## # ... with 182 more rows, and 4 more variables: se_weekly_nar <dbl>,
## #   interval_value <dbl>, low_ci <dbl>, high_ci <dbl>
…
Compare Confidence Intervals

Comparing the confidence intervals for week 15 (6-12 April 2020) and week 34 (17-23 August 2020).

ci_wna <- weekly_net_approval %>% 
  mutate(ci = interval_value * 2)

ci_wna

## # A tibble: 192 x 11
## # Groups:   year [4]
##     year  week mean_weekly_nar sd_weekly_nar count_weekly_nar t_distribution
##    <dbl> <dbl>           <dbl>         <dbl>            <int>          <dbl>
##  1  2017     4           2.96           7.67               14           2.16
##  2  2017     5           1.85           3.67               20           2.09
##  3  2017     6          -2.06           5.82               25           2.06
##  4  2017     7          -2.46           6.35               25           2.06
##  5  2017     8          -3.32           5.96               23           2.07
##  6  2017     9          -0.704          3.81               23           2.07
##  7  2017    10          -3.13           4.49               25           2.06
##  8  2017    11          -4.67           4.43               25           2.06
##  9  2017    12          -5.6            6.71               24           2.07
## 10  2017    13          -9.89           3.94               25           2.06
## # ... with 182 more rows, and 5 more variables: se_weekly_nar <dbl>,
## #   interval_value <dbl>, low_ci <dbl>, high_ci <dbl>, ci <dbl>
…
Top 5 countries that have seen the greatest improvement in mortality rates, as well as those 5 countries where mortality rates have had the least improvement or even deterioration.

cleaned_data_latest <- Combined_data_2 %>% filter(!is.na(SH.DYN.MORT)) %>% group_by(region, country) %>% 
  top_n(n=1, wt=date) %>% select(region, country, SH.DYN.MORT, date)

cleaned_data_oldest <- Combined_data_2 %>% filter(!is.na(SH.DYN.MORT)) %>% group_by(region, country) %>% 
  top_n(n=1, wt=-date) %>% select(region, country, SH.DYN.MORT, date)

improvement_data <- cleaned_data_latest %>% inner_join(cleaned_data_oldest,
                                                       by=c("region", "country"),
                                                       suffix = c("_latest", "_oldest")) %>% 
  mutate(improvement = -((SH.DYN.MORT_latest - SH.DYN.MORT_oldest)/SH.DYN.MORT_oldest)*100.0) #negative sign because reduction in mortality is actually improvement in mortality
improvement_data

## # A tibble: 193 x 7
## # Groups:   region, country [193]
##    region country SH.DYN.MORT_lat~ date_latest SH.DYN.MORT_old~ date_oldest
##    <chr>  <chr>              <dbl>       <dbl>            <dbl>       <dbl>
##  1 South~ Afghan~             67.6        2016            345.         1962
##  2 Sub-S~ Angola              84.2        2016            237.         1980
##  3 Europ~ Albania              9.4        2016             96.2        1978
##  4 Europ~ Andorra              3.4        2016             17.1        1985
##  5 Middl~ United~              7.8        2016            200.         1960
##  6 Latin~ Argent~             10.9        2016             72.5        1969
##  7 Europ~ Armenia             13.7        2016             86.2        1976
##  8 Latin~ Antigu~              7.4        2016             86.2        1960
##  9 East ~ Austra~              3.8        2016             24.8        1960
## 10 Europ~ Austria              3.6        2016             42.8        1960
## # ... with 183 more rows, and 1 more variable: improvement <dbl>

top_5_improvements_by_region <- improvement_data %>% group_by(region) %>% top_n(n=5, wt=improvement) %>% arrange(region, -improvement)
top_5_improvements_by_region

## # A tibble: 32 x 7
## # Groups:   region [7]
##    region country SH.DYN.MORT_lat~ date_latest SH.DYN.MORT_old~ date_oldest
##    <chr>  <chr>              <dbl>       <dbl>            <dbl>       <dbl>
##  1 East ~ Korea,~              3.4        2016            112.         1960
##  2 East ~ Singap~              2.7        2016             47.7        1960
##  3 East ~ Japan                2.7        2016             39.7        1960
##  4 East ~ Thaila~             10.3        2016            146.         1960
##  5 East ~ China                9.9        2016            118.         1969
##  6 Europ~ Portug~              3.6        2016            114.         1960
##  7 Europ~ Turkey              12.1        2016            257.         1960
##  8 Europ~ Italy                3.4        2016             51.9        1960
##  9 Europ~ Cyprus               2.6        2016             38.2        1971
## 10 Europ~ Poland               4.7        2016             65.1        1960
## # ... with 22 more rows, and 1 more variable: improvement <dbl>
…
bottom_5_improvements_by_region <- improvement_data %>% group_by(region) %>% top_n(n=5, wt=-improvement) %>% arrange(region, improvement)
bottom_5_improvements_by_region

## # A tibble: 32 x 7
## # Groups:   region [7]
##    region country SH.DYN.MORT_lat~ date_latest SH.DYN.MORT_old~ date_oldest
##    <chr>  <chr>              <dbl>       <dbl>            <dbl>       <dbl>
##  1 East ~ Micron~             32.5        2016             56.5        1981
##  2 East ~ Korea,~             20          2016             35.1        1985
##  3 East ~ Palau               19.1        2016             36.4        1985
##  4 East ~ Nauru               33.9        2016             74.1        1985
##  5 East ~ Tuvalu              26.4        2016             80.5        1975
##  6 Europ~ Monaco               3.4        2016              9.7        1985
##  7 Europ~ Turkme~             42.2        2016            133.         1977
##  8 Europ~ Slovak~              6.1        2016             21.6        1981
##  9 Europ~ Ukraine              9.2        2016             33.8        1971
## 10 Europ~ Moldova             15.3        2016             64.1        1971
## # ... with 22 more rows, and 1 more variable: improvement <dbl>
…
monthly_data <- bike %>% filter(year %in% c(2015, 2016, 2017, 2018, 2019, 2020)) %>%  group_by(year, month) %>% 
  summarise(actual_rentals = mean(bikes_hired)) %>% full_join(expected_rentals_per_month_tbl, by = "month") %>% 
  mutate(excess_rentals = actual_rentals-expected_rentals)

monthly_data

## # A tibble: 68 x 5
## # Groups:   year [6]
##     year month actual_rentals expected_rentals excess_rentals
##    <dbl> <ord>          <dbl>            <dbl>          <dbl>
##  1  2015 Jan           18828.           20259.         -1431.
##  2  2015 Feb           19617.           21566.         -1949.
##  3  2015 Mar           22625.           23115.          -490.
##  4  2015 Apr           27951.           28230.          -278.
##  5  2015 May           29031.           32422.         -3391.
##  6  2015 Jun           34659.           35262.          -604.
##  7  2015 Jul           36607.           37809.         -1202.
##  8  2015 Aug           33643.           34243.          -600.
##  9  2015 Sep           30114.           32433.         -2319.
## 10  2015 Oct           28560.           29900.         -1339.
## # ... with 58 more rows
…
The second one looks at percentage changes from the expected level of weekly rentals. The two grey shaded rectangles correspond to the second (weeks 14-26) and fourth (weeks 40-52) quarters.

expected_rentals_per_week_tbl <- bike %>% filter(year %in% c(2015, 2016, 2017, 2018, 2019)) %>% group_by(week) %>% 
  summarise(expected_rentals = mean(bikes_hired))

expected_rentals_per_week_tbl

## # A tibble: 53 x 2
##     week expected_rentals
##    <dbl>            <dbl>
##  1     1           16360.
##  2     2           21402.
##  3     3           21540.
##  4     4           21407.
##  5     5           20795.
##  6     6           20058.
##  7     7           22761.
##  8     8           22602.
##  9     9           20176.
## 10    10           23561.
## # ... with 43 more rows

weekly_data <- bike %>% filter(year %in% c(2015, 2016, 2017, 2018, 2019, 2020)) %>%  group_by(year, week) %>% 
  summarise(actual_rentals = mean(bikes_hired)) %>% full_join(expected_rentals_per_week_tbl, by = "week") %>% 
  mutate(excess_rentals_percent = (actual_rentals-expected_rentals)/expected_rentals,
         color_id = ifelse(excess_rentals_percent >= 0, ">=0", "<0"))

weekly_data

## # A tibble: 298 x 6
## # Groups:   year [6]
##     year  week actual_rentals expected_rentals excess_rentals_percent color_id
##    <dbl> <dbl>          <dbl>            <dbl>                  <dbl> <chr>   
##  1  2015     1         10038.           16360.               -0.386   <0      
##  2  2015     2         18786.           21402.               -0.122   <0      
##  3  2015     3         20131.           21540.               -0.0654  <0      
##  4  2015     4         21158.           21407.               -0.0117  <0      
##  5  2015     5         19201.           20795.               -0.0767  <0      
##  6  2015     6         19386.           20058.               -0.0335  <0      
##  7  2015     7         20787            22761.               -0.0867  <0      
##  8  2015     8         18711.           22602.               -0.172   <0      
##  9  2015     9         20213.           20176.                0.00181 >=0     
## 10  2015    10         24196.           23561.                0.0269  >=0     
## # ... with 288 more rows
…
